Chapter 12: Multivariate Regression
…
x %>% 
  arrange(desc(sat)) %>% 
  print(n = 15)

## # A tibble: 797 x 8
##    name              tier tier_name          public earnings   sat faculty price
##    <chr>            <dbl> <chr>               <dbl>    <dbl> <dbl>   <dbl> <dbl>
##  1 California Inst     2 Other elite schoo      0    74000  1520 107835. 19959
##  2 Harvard Univers     1 Ivy Plus                0    87200  1485 116117. 25128
##  3 Massachusetts I     1 Ivy Plus                0    91600  1485 100796. 26746
##  4 Harvey Mudd Col     2 Other elite schoo      0    78600  1465  79932. 23187
##  5 Stanford Univer     1 Ivy Plus                0    80900  1455 111190. 24622
##  6 Swarthmore Coll     2 Other elite schoo      0    49400  1445  84543. 25200
##  7 Pomona College       2 Other elite schoo      0    52600  1440  80379. 24170
##  8 Dartmouth Colle     1 Ivy Plus                0    67100  1425  88192. 25653
##  9 Rice University      2 Other elite schoo      0    59900  1420  90284. 15932
## 10 Amherst College      2 Other elite schoo      0    56800  1415  89014  26080
## 11 Williams College     2 Other elite schoo      0    58100  1410  80419. 24740
## 12 Yale University      1 Ivy Plus                0    66000  1405  96146. 25220
## 13 Cornell Univers     1 Ivy Plus                0    70900  1400  88464. 24850
## 14 University Of C     1 Ivy Plus                0    62800  1400  97168. 25239
## 15 University Of P     1 Ivy Plus                0    78200  1400 107547. 25170
## #  with 782 more rows
…
